Chapitre 3 Les données vectorielles | Géomatique avec R
…
# Import du ficier
pop_raw <- read.csv("data/pop.csv")
# ajout d'un identifiant unique
pop_raw$id <- 1:nrow(pop_raw)
# transformation en objet sf
pop <- st_as_sf(pop_raw, coords = c("x", "y"), crs = 3035)
# gestion de la projection
pop <- st_transform(pop, st_crs(com))
# intersection
inter <- st_intersection(pop, com)
inter

Simple feature collection with 4350 features and 14 fields
Geometry type: POINT
Dimension:     XY
Bounding box:  xmin: 540316 ymin: 6347200 xmax: 637157.8 ymax: 6439117
Projected CRS: RGF93 / Lambert-93
First 10 features:
     Ind   id INSEE_COM NOM_COM         STATUT POPULATION    AGR_H AGR_F    IND_H IND_F
1069   3 1069     46001   Albas Commune simple        522 4.978581     0 4.936153     0
1070   7 1070     46001   Albas Commune simple        522 4.978581     0 4.936153     0
1129  11 1129     46001   Albas Commune simple        522 4.978581     0 4.936153     0
1130   9 1130     46001   Albas Commune simple        522 4.978581     0 4.936153     0
1131  13 1131     46001   Albas Commune simple        522 4.978581     0 4.936153     0
1189  18 1189     46001   Albas Commune simple        522 4.978581     0 4.936153     0
        BTP_H BTP_F    TER_H   TER_F                 geometry
1069 9.957527     0 44.91714 34.6818 POINT (559462.5 6372439)
1070 9.957527     0 44.91714 34.6818 POINT (560457.4 6372534)
1129 9.957527     0 44.91714 34.6818 POINT (559374.1 6373435)
1130 9.957527     0 44.91714 34.6818   POINT (560369 6373530)
1131 9.957527     0 44.91714 34.6818 POINT (561363.8 6373625)
1189 9.957527     0 44.91714 34.6818 POINT (558290.8 6374337)
 [ reached 'max' / getOption("max.print") -- omitted 4 rows ]
…
  INSEE_COM pop_from_grid
1     46001         472.0
2     46002          79.0
3     46003         518.5
4     46004         144.5
5     46005         308.0
6     46006         345.0

On peut ensuite créer un nouvel objet avec ce resultat.

com_res <- merge(com, resultat, by = "INSEE_COM", all.x = TRUE)
com_res

Simple feature collection with 313 features and 13 fields
Geometry type: MULTIPOLYGON
Dimension:     XY
Bounding box:  xmin: 539668.5 ymin: 6346290 xmax: 637380.9 ymax: 6439668
Projected CRS: RGF93 / Lambert-93
First 10 features:
  INSEE_COM         NOM_COM         STATUT POPULATION     AGR_H    AGR_F     IND_H
1     46001           Albas Commune simple        522  4.978581 0.000000  4.936153
2     46002          Albiac Commune simple         67  0.000000 9.589041  0.000000
3     46003        Alvignac Commune simple        706 10.419682 0.000000 10.419682
4     46004         Anglars Commune simple        219  0.000000 0.000000 20.000000
5     46005 Anglars-Juillac Commune simple        329  4.894895 4.894895  4.894895
6     46006   Anglars-Nozac Commune simple        377  4.840849 0.000000  0.000000
      IND_F     BTP_H    BTP_F     TER_H     TER_F pop_from_grid
1  0.000000  9.957527 0.000000 44.917145 34.681799         472.0
2  0.000000  4.794521 0.000000  4.794521  9.589041          79.0
3  5.209841 10.419682 0.000000 57.308249 78.147612         518.5
4 15.000000 10.000000 0.000000 20.000000 20.000000         144.5
5  0.000000  0.000000 0.000000 29.369369 29.369369         308.0
6  0.000000  9.681698 4.840849 43.567639 38.726790         345.0
                        geometry
1 MULTIPOLYGON (((559262 6371...
2 MULTIPOLYGON (((605540.7 64...
3 MULTIPOLYGON (((593707.7 64...
4 MULTIPOLYGON (((613211.3 64...
5 MULTIPOLYGON (((556744.9 63...
6 MULTIPOLYGON (((576667.2 64...
 [ reached 'max' / getOption("max.print") -- omitted 4 rows ]
…
